Date-Time,x,y,z
2017-06-13 10:18:10.2560,0.039734,-0.961426,0.394653
2017-06-13 10:18:10.6600,-0.162903,-1.084473,0.383423
2017-06-13 10:18:11.0660,-0.118958,-1.044434,0.397095
2017-06-13 10:18:11.3350,-0.000305,-0.788574,0.192017
2017-06-13 10:18:11.6060,-0.046204,-0.934082,0.386841
2017-06-13 10:18:12.0160,-0.044739,-0.608887,0.220825
2017-06-13 10:18:12.4190,-0.192688,-1.013672,0.352661
2017-06-13 10:18:12.8220,0.139832,-1.118652,0.648071
2017-06-13 10:18:13.3600,0.006042,-0.622559,0.325317
2017-06-13 10:18:13.7670,-0.033020,-1.236816,0.111938
2017-06-13 10:18:14.1710,-0.124329,-1.285645,0.543579
2017-06-13 10:18:14.5750,0.050964,-1.062988,0.378540
2017-06-13 10:18:14.9800,-0.033508,-0.737305,0.256958
2017-06-13 10:18:15.3860,-0.107727,-0.954102,0.356567
2017-06-13 10:18:15.7900,-0.042786,-1.138672,0.113892
2017-06-13 10:18:16.0600,0.018738,-0.464844,0.104126
2017-06-13 10:18:16.4670,-0.393372,-1.066406,0.211060
2017-06-13 10:18:16.7380,-0.208801,-1.295410,0.374146
2017-06-13 10:18:17.0050,-0.120911,-1.281738,0.123657
2017-06-13 10:18:17.2750,-0.191223,-1.294922,0.510376
2017-06-13 10:18:17.5450,-0.220032,-1.085938,0.250610
2017-06-13 10:18:17.9500,0.025085,-1.123535,0.367798
2017-06-13 10:18:18.4960,0.001648,-0.850098,0.306274
2017-06-13 10:18:18.7600,-0.136536,-0.786133,0.290161
2017-06-13 10:18:19.3070,-0.047180,-1.325195,0.160278
2017-06-13 10:18:19.7070,-0.072083,-1.011719,0.464478
2017-06-13 10:18:19.9780,-0.092590,-0.617188,0.208618
2017-06-13 10:18:20.2450,0.013855,-1.173340,-0.049683
2017-06-13 10:18:20.5160,-0.059875,-0.562500,0.090454
2017-06-13 10:18:20.9220,-0.229309,-1.002441,0.295532
2017-06-13 10:18:21.1910,-0.018860,-0.783203,0.312134
2017-06-13 10:18:21.4620,-0.079407,-1.170898,0.261353
2017-06-13 10:18:21.7300,0.043152,-0.664551,0.264771
2017-06-13 10:18:22.1370,-0.088196,-0.767090,0.309204
2017-06-13 10:18:22.4050,-0.121887,-0.830566,0.288696
2017-06-13 10:18:22.6750,-0.018860,-0.595703,0.102173
