Date-Time,x,y,z
2017-06-13 10:23:08.7440,0.028076,-0.851624,0.090210
2017-06-13 10:23:09.0080,-0.045166,-0.849670,0.185425
2017-06-13 10:23:09.2850,0.019775,-0.644104,0.226929
2017-06-13 10:23:09.5490,-0.150146,-1.326233,0.175659
2017-06-13 10:23:09.8180,-0.090576,-0.888733,0.273315
2017-06-13 10:23:10.0880,0.090576,-1.155334,0.362671
2017-06-13 10:23:10.3590,-0.039795,-0.690979,0.191284
2017-06-13 10:23:10.6290,-0.177002,-1.000061,0.210815
2017-06-13 10:23:10.8980,-0.051025,-0.662170,0.252319
2017-06-13 10:23:11.1690,0.051025,-1.095764,-0.052368
2017-06-13 10:23:11.4380,0.003174,-0.485413,0.116089
2017-06-13 10:23:11.9780,-0.264893,-0.822327,0.079956
2017-06-13 10:23:12.3830,0.082275,-1.200745,-0.019165
2017-06-13 10:23:12.7880,0.147705,-1.171936,0.634155
2017-06-13 10:23:13.3480,0.003174,-0.658264,0.251343
2017-06-13 10:23:13.5980,-0.049561,-1.318420,0.155151
2017-06-13 10:23:14.0040,-0.296143,-1.328674,0.355835
2017-06-13 10:23:14.4080,-0.074951,-0.744690,0.207397
2017-06-13 10:23:14.6780,0.046143,-1.097229,0.313843
2017-06-13 10:23:15.0870,-0.049072,-0.918030,0.241089
2017-06-13 10:23:15.3530,-0.165283,-0.860901,0.184937
2017-06-13 10:23:15.6250,-0.124756,-0.902405,0.199585
2017-06-13 10:23:15.8940,-0.007080,-0.693909,0.209839
2017-06-13 10:23:16.1680,-0.083740,-0.987854,0.367554
2017-06-13 10:23:16.5690,-0.063232,-0.836487,0.192261
