Date-Time,x,y,z
2017-06-13 10:25:03.0870,-0.119812,-0.971802,0.218994
2017-06-13 10:25:03.4880,-0.141296,-0.976685,0.151611
2017-06-13 10:25:03.8930,-0.150085,-1.002563,0.085693
2017-06-13 10:25:04.1640,-0.144897,-0.956970,0.083496
2017-06-13 10:25:04.4330,-0.146362,-0.981384,0.109375
2017-06-13 10:25:04.8430,-0.067322,-1.038757,0.124451
2017-06-13 10:25:05.2450,-0.180603,-0.915710,0.324646
2017-06-13 10:25:05.6490,0.082581,-0.896179,-0.027893
2017-06-13 10:25:06.0530,-0.037537,-1.142273,0.101501
2017-06-13 10:25:06.4580,-0.120544,-0.809753,0.293396
2017-06-13 10:25:06.8650,0.165588,-1.038269,0.054626
2017-06-13 10:25:07.1330,0.099182,-0.856140,0.116638
2017-06-13 10:25:07.4030,-0.135193,-0.939148,0.231873
2017-06-13 10:25:07.8100,-0.129822,-1.106140,0.109314
2017-06-13 10:25:08.2180,0.062561,-0.917175,0.099548
2017-06-13 10:25:08.6210,-0.102478,-1.362000,0.128357
2017-06-13 10:25:09.0230,0.158752,-1.287781,-0.163147
2017-06-13 10:25:09.5680,-0.018982,-0.964539,0.101990
2017-06-13 10:25:10.1090,-0.043396,-1.334167,0.179138
2017-06-13 10:25:10.3730,0.017639,-0.912292,-0.099182
2017-06-13 10:25:10.7790,-0.105896,-0.906433,-0.167053
2017-06-13 10:25:11.4650,0.010803,-1.089050,-0.079651
2017-06-13 10:25:11.7230,-0.046326,-0.950378,0.395935
2017-06-13 10:25:12.2710,-0.131775,-0.821960,0.322205
2017-06-13 10:25:12.5330,0.059143,-1.036804,0.287537
2017-06-13 10:25:13.0780,-0.227478,-0.682312,0.362244
2017-06-13 10:25:13.3430,-0.125427,-0.967957,0.415955
