Date-Time,x,y,z
2017-06-13 10:25:53.8480,-0.017517,-0.938171,0.325623
2017-06-13 10:25:54.1130,0.003479,-0.983582,0.363220
2017-06-13 10:25:54.5180,-0.050232,-0.998718,0.356873
2017-06-13 10:25:54.7880,-0.084412,-0.856140,0.227478
2017-06-13 10:25:55.0580,-0.096130,-0.828308,0.434021
2017-06-13 10:25:55.6050,-0.123962,-0.899597,0.467224
2017-06-13 10:25:55.8680,0.034729,-0.994324,0.175232
2017-06-13 10:25:56.4130,-0.043884,-0.674988,0.339294
2017-06-13 10:25:56.6780,-0.048767,-1.179382,0.207947
2017-06-13 10:25:57.2250,0.073792,-0.879089,0.264587
2017-06-13 10:25:57.6230,-0.020447,-1.110046,0.052185
2017-06-13 10:25:58.0270,-0.179138,-1.124207,0.198669
2017-06-13 10:25:58.4350,-0.308044,-0.931824,0.157166
2017-06-13 10:25:58.8400,0.056213,-0.777039,0.198669
2017-06-13 10:25:59.3830,-0.058533,-0.623230,0.237244
2017-06-13 10:25:59.6480,-0.010681,-1.196472,0.048767
2017-06-13 10:26:00.0580,-0.059509,-1.129578,0.216248
2017-06-13 10:26:00.3270,-0.081970,-0.739441,0.238708
2017-06-13 10:26:00.5930,0.025940,-1.032410,-0.004944
2017-06-13 10:26:00.8620,0.081116,-0.608093,0.194763
2017-06-13 10:26:01.1340,-0.074646,-0.848328,0.332947
2017-06-13 10:26:01.4030,-0.186951,-0.919128,0.263123
2017-06-13 10:26:01.8070,0.087952,-0.574402,0.066345
2017-06-13 10:26:02.2130,0.007385,-0.823914,0.332947
2017-06-13 10:26:02.7590,0.112366,-1.049500,0.114197
2017-06-13 10:26:03.1590,-0.012146,-0.846863,0.344177
2017-06-13 10:26:03.5630,0.116272,-1.201843,0.172302
2017-06-13 10:26:03.8340,0.067932,-0.752625,0.179138
2017-06-13 10:26:04.1030,-0.111755,-1.112488,0.119080
