Date-Time,x,y,z
2017-06-13 10:27:41.7070,-0.058044,-0.928894,0.327576
2017-06-13 10:27:41.9770,-0.082458,-0.945007,0.313904
2017-06-13 10:27:42.2470,-0.072205,-0.938171,0.326111
2017-06-13 10:27:42.5170,-0.061951,-0.951355,0.329041
2017-06-13 10:27:42.7890,-0.073669,-0.942566,0.320251
2017-06-13 10:27:43.0570,-0.065857,-0.933777,0.309998
2017-06-13 10:27:43.4620,-0.055115,-0.995789,0.396423
2017-06-13 10:27:43.8670,-0.143982,-0.820496,0.481384
2017-06-13 10:27:44.2740,0.071350,-1.045105,0.213806
2017-06-13 10:27:44.5420,0.077209,-0.804871,0.289978
2017-06-13 10:27:44.8120,-0.015564,-0.866394,0.335876
2017-06-13 10:27:45.0820,-0.094177,-0.818542,0.376404
2017-06-13 10:27:45.3520,-0.028748,-0.645691,0.161072
2017-06-13 10:27:45.6240,-0.052185,-1.220398,0.270935
2017-06-13 10:27:46.0490,-0.102478,-0.699402,0.414490
2017-06-13 10:27:46.4330,-0.072693,-0.846863,0.241150
2017-06-13 10:27:46.8380,-0.270935,-1.058777,0.254822
2017-06-13 10:27:47.3810,-0.190857,-1.104187,0.424255
2017-06-13 10:27:47.6470,0.050842,-0.902039,0.247009
2017-06-13 10:27:48.0520,-0.019470,-0.681335,0.219177
2017-06-13 10:27:48.3220,-0.013123,-1.196472,0.202087
2017-06-13 10:27:48.5920,0.055237,-0.820007,0.280701
2017-06-13 10:27:48.9990,0.002991,-0.679871,0.238220
2017-06-13 10:27:49.4030,0.095276,-1.135925,0.131775
2017-06-13 10:27:49.8140,0.041077,-1.142273,0.219666
2017-06-13 10:27:50.2120,-0.112244,-0.804871,0.336853
2017-06-13 10:27:50.6170,0.034729,-0.624695,0.188904
2017-06-13 10:27:50.8870,-0.227478,-1.090515,0.231873
2017-06-13 10:27:51.1580,-0.117615,-0.814636,0.363708
2017-06-13 10:27:51.5630,-0.057556,-0.908386,0.218201
2017-06-13 10:27:51.9670,-0.309509,-0.883972,-0.149963
2017-06-13 10:27:52.3720,-0.190857,-1.091003,0.351990
