Date-Time,x,y,z
2017-06-13 10:27:56.5570,-0.031189,-0.934753,0.340759
2017-06-13 10:27:57.0990,-0.029236,-0.956726,0.309509
2017-06-13 10:27:57.3810,-0.015076,-0.958191,0.293884
2017-06-13 10:27:57.6440,-0.023376,-0.966492,0.321716
2017-06-13 10:27:57.9070,-0.067322,-0.941589,0.342224
2017-06-13 10:27:58.3190,-0.024353,-0.897156,0.474548
2017-06-13 10:27:58.7180,0.064514,-0.908875,0.382263
2017-06-13 10:27:58.9870,0.006409,-1.022156,0.235779
2017-06-13 10:27:59.5320,-0.100525,-0.752625,0.250427
2017-06-13 10:27:59.9340,0.033752,-0.695496,0.162537
2017-06-13 10:28:00.2020,-0.297791,-1.168640,0.371521
2017-06-13 10:28:00.4720,-0.083923,-0.749207,0.414490
2017-06-13 10:28:00.8770,-0.065369,-0.709167,0.119568
2017-06-13 10:28:01.2820,-0.269470,-1.070007,0.155701
2017-06-13 10:28:01.6870,-0.090759,-1.130066,0.301697
2017-06-13 10:28:02.0930,0.141663,-1.165222,0.152771
2017-06-13 10:28:02.6370,-0.093689,-0.679382,0.321716
2017-06-13 10:28:02.9030,-0.109314,-1.100769,0.192322
2017-06-13 10:28:03.1720,0.115784,-0.978210,0.235779
2017-06-13 10:28:03.5770,-0.068298,-0.624695,0.314880
2017-06-13 10:28:03.8470,-0.184509,-1.105652,0.411072
2017-06-13 10:28:04.1170,0.108459,-0.849304,0.265564
2017-06-13 10:28:04.3870,-0.049255,-0.617859,0.189880
2017-06-13 10:28:04.6570,-0.189880,-1.116394,0.350525
2017-06-13 10:28:05.0630,0.073303,-0.784363,0.212830
2017-06-13 10:28:05.4670,0.009827,-0.693054,0.203552
2017-06-13 10:28:05.7370,0.056213,-1.003601,0.055115
2017-06-13 10:28:06.0110,0.055237,-0.736023,0.231384
2017-06-13 10:28:06.4130,-0.063416,-0.915710,0.290955
2017-06-13 10:28:06.8170,-0.018005,-1.257019,0.281189
