Date-Time,x,y,z
2017-06-13 10:28:44.3470,-0.029236,-0.942078,0.293396
2017-06-13 10:28:44.7520,-0.015076,-0.957214,0.289490
2017-06-13 10:28:45.2950,-0.005798,-0.956238,0.296814
2017-06-13 10:28:45.6990,0.020081,-0.939148,0.300232
2017-06-13 10:28:45.9670,0.022034,-0.940613,0.312439
2017-06-13 10:28:46.2360,-0.017029,-0.860046,0.463318
2017-06-13 10:28:46.6510,-0.002869,-0.981140,0.413513
2017-06-13 10:28:46.9140,-0.202087,-1.071960,0.405701
2017-06-13 10:28:47.3190,-0.114685,-0.853699,0.315369
2017-06-13 10:28:47.7220,-0.070251,-0.674011,0.122498
2017-06-13 10:28:47.9940,-0.414490,-1.206238,0.117615
2017-06-13 10:28:48.2620,-0.209412,-0.639343,0.388123
2017-06-13 10:28:48.6690,-0.241638,-0.673523,0.342224
2017-06-13 10:28:49.2220,-0.480408,-0.945984,0.359314
2017-06-13 10:28:49.6130,-0.550232,-1.079285,0.773376
2017-06-13 10:28:49.8820,-0.278259,-0.979187,0.447693
2017-06-13 10:28:50.2900,-0.216736,-0.647644,0.431580
2017-06-13 10:28:50.6930,0.036682,-1.004089,0.258728
2017-06-13 10:28:50.9620,-0.356873,-1.135925,-0.085510
2017-06-13 10:28:51.2330,0.012756,-0.553406,0.194275
2017-06-13 10:28:51.6390,-0.119568,-1.046570,0.197693
2017-06-13 10:28:52.0440,-0.342712,-1.341492,0.192810
2017-06-13 10:28:52.4480,-0.175232,-0.892273,0.198669
2017-06-13 10:28:52.8520,-0.048767,-0.711121,0.065369
2017-06-13 10:28:53.1230,-0.082947,-1.269226,0.205994
2017-06-13 10:28:53.3920,-0.246033,-0.862976,0.249451
2017-06-13 10:28:53.7980,-0.145447,-0.951355,0.050232
2017-06-13 10:28:54.2030,-0.127380,-1.140320,0.246033
2017-06-13 10:28:54.6080,-0.151794,-0.890808,0.298767
2017-06-13 10:28:55.0120,-0.120056,-1.094910,0.092712
