Date-Time,x,y,z
2017-06-13 10:30:53.1410,0.229431,-0.826172,-0.512939
2017-06-13 10:30:53.5550,0.242615,-0.822754,-0.497803
2017-06-13 10:30:53.9460,0.207458,-0.925110,-0.413696
2017-06-13 10:30:54.3540,0.099548,-0.904114,-0.386353
2017-06-13 10:30:54.8970,0.130310,-0.886047,-0.480103
2017-06-13 10:30:55.3050,-0.134338,-0.965637,-0.297974
2017-06-13 10:30:55.7030,0.142029,-0.710266,-0.316040
2017-06-13 10:30:56.2460,0.039978,-1.058411,-0.350708
2017-06-13 10:30:56.6470,0.123474,-1.204895,-0.287720
2017-06-13 10:30:56.9160,0.118591,-0.670227,-0.386353
2017-06-13 10:30:57.1860,0.105896,-0.964172,-0.372192
2017-06-13 10:30:57.5920,0.025330,-0.916809,-0.290649
2017-06-13 10:30:57.9980,-0.023499,-0.589661,-0.300903
2017-06-13 10:30:58.2660,0.025330,-1.174133,-0.330200
2017-06-13 10:30:58.6710,0.361267,-1.027649,-0.502075
2017-06-13 10:30:59.0780,0.041443,-0.596985,-0.267700
2017-06-13 10:30:59.4820,0.065369,-1.168762,-0.222778
2017-06-13 10:30:59.7510,0.124939,-0.671692,-0.234009
2017-06-13 10:31:00.0220,0.216248,-0.888000,-0.375122
2017-06-13 10:31:00.4260,-0.102112,-0.594543,-0.188599
2017-06-13 10:31:01.2430,0.165466,-1.116516,-0.417603
2017-06-13 10:31:01.9150,-0.026428,-1.005188,-0.273560
2017-06-13 10:31:02.1810,0.110779,-0.743469,-0.373657
2017-06-13 10:31:02.7260,0.005798,-0.764954,-0.194946
2017-06-13 10:31:02.9970,-0.020569,-0.755188,-0.314087
2017-06-13 10:31:03.4030,0.018982,-1.157043,-0.313110
2017-06-13 10:31:03.8010,0.066345,-0.976868,-0.245239
2017-06-13 10:31:04.0710,0.287537,-0.755188,-0.136841
2017-06-13 10:31:04.4760,0.082947,-0.783020,-0.386841
2017-06-13 10:31:04.7470,-0.003479,-0.919250,-0.150024
