Date-Time,x,y,z
2017-06-13 10:32:21.0880,0.131592,-0.933594,-0.295105
2017-06-13 10:32:21.4260,0.103271,-0.967773,-0.287292
2017-06-13 10:32:21.8310,0.097900,-0.952637,-0.291199
2017-06-13 10:32:22.2820,0.110596,-0.934082,-0.299500
2017-06-13 10:32:22.6410,0.096924,-0.946289,-0.300964
2017-06-13 10:32:23.0450,0.021240,-0.958496,-0.336609
2017-06-13 10:32:23.4500,0.122803,-0.909180,-0.399109
2017-06-13 10:32:23.8550,0.253174,-1.260254,-0.249695
2017-06-13 10:32:24.3960,0.002197,-0.885742,-0.209656
2017-06-13 10:32:24.6650,-0.049072,-0.564941,-0.253601
2017-06-13 10:32:25.0710,0.101807,-1.216797,-0.195496
2017-06-13 10:32:25.3410,0.296631,-1.118652,-0.524597
2017-06-13 10:32:25.6110,-0.021240,-0.577637,-0.226257
2017-06-13 10:32:26.0210,-0.010986,-1.197754,-0.139343
2017-06-13 10:32:26.4210,0.150146,-1.078613,-0.430359
2017-06-13 10:32:26.6910,-0.082275,-0.553223,-0.274597
2017-06-13 10:32:27.0950,-0.005127,-1.245117,-0.184753
2017-06-13 10:32:27.5010,0.011475,-0.683594,-0.140808
2017-06-13 10:32:27.7710,0.184814,-1.045898,-0.283386
2017-06-13 10:32:28.3120,0.001709,-0.596680,-0.109558
2017-06-13 10:32:28.5810,-0.093018,-0.925293,-0.404968
2017-06-13 10:32:28.9850,-0.238525,-1.053223,-0.250183
2017-06-13 10:32:29.3940,-0.116943,-0.787109,-0.231140
2017-06-13 10:32:29.9310,0.099854,-0.852539,-0.357605
2017-06-13 10:32:30.3380,0.019287,-0.871094,-0.250183
2017-06-13 10:32:30.7420,0.378662,-0.989258,-0.172546
2017-06-13 10:32:31.1470,0.046631,-0.927246,-0.286316
2017-06-13 10:32:31.6910,0.110107,-1.022461,-0.177917
2017-06-13 10:32:31.9560,0.238037,-1.168457,-0.354187
2017-06-13 10:32:32.3640,-0.050537,-0.832031,-0.242859
2017-06-13 10:32:32.6310,0.208252,-1.141602,-0.460632
2017-06-13 10:32:32.9010,-0.070068,-0.629395,-0.206238
