Date-Time,x,y,z
2017-06-13 10:40:50.2410,-0.106323,0.970886,-0.261169
2017-06-13 10:40:50.6430,-0.104858,0.960144,-0.269470
2017-06-13 10:40:51.0480,-0.110718,0.963562,-0.267517
2017-06-13 10:40:51.3180,-0.098022,0.957703,-0.273376
2017-06-13 10:40:51.5880,-0.079956,0.957214,-0.282166
2017-06-13 10:40:51.9950,-0.078003,0.924011,-0.240662
2017-06-13 10:40:52.4000,-0.105835,0.893738,-0.442810
2017-06-13 10:40:52.7450,-0.151245,0.812683,-0.485779
2017-06-13 10:40:53.2100,0.019653,0.942078,-0.205017
2017-06-13 10:40:53.6140,-0.037964,0.652527,-0.189392
2017-06-13 10:40:53.8840,-0.124878,1.177429,0.010803
2017-06-13 10:40:54.1540,-0.011108,0.582703,-0.111267
2017-06-13 10:40:54.5580,-0.009644,0.718445,-0.196716
2017-06-13 10:40:54.9640,-0.047241,1.293152,-0.085388
2017-06-13 10:40:55.5060,-0.160522,1.125183,-0.155212
2017-06-13 10:40:55.7760,-0.266479,0.975281,-0.277771
2017-06-13 10:40:56.1800,0.046509,0.654480,-0.105408
2017-06-13 10:40:56.5850,-0.036987,0.622253,-0.165955
2017-06-13 10:40:56.8530,-0.006714,1.234558,-0.116638
2017-06-13 10:40:57.1230,0.078735,0.665222,-0.166443
2017-06-13 10:40:57.5290,-0.028198,0.694519,-0.182556
2017-06-13 10:40:57.9340,0.007446,1.121277,-0.032654
2017-06-13 10:40:58.4780,-0.042847,1.113464,-0.169861
2017-06-13 10:40:58.7420,-0.163940,0.915710,-0.355896
2017-06-13 10:40:59.0130,0.016235,1.132507,-0.032166
2017-06-13 10:40:59.5580,-0.062866,1.068054,-0.259705
2017-06-13 10:40:59.9580,-0.066284,1.152039,-0.097595
