Date-Time,x,y,z
2017-06-14 11:18:40.8740,-0.150696,-1.829468,0.787231
2017-06-14 11:18:41.2740,-0.134583,-1.828003,0.756470
2017-06-14 11:18:41.6870,-0.152161,-1.867065,0.748657
2017-06-14 11:18:42.0990,-0.158020,-1.846558,0.765747
2017-06-14 11:18:42.3550,-0.167786,-1.818726,0.750122
2017-06-14 11:18:42.7600,-0.059387,-1.902222,0.877075
2017-06-14 11:18:43.0300,-0.183411,-1.674683,0.749634
2017-06-14 11:18:43.9810,-0.268372,-1.940796,0.759888
2017-06-14 11:18:44.3820,-0.149231,-1.881226,0.737915
2017-06-14 11:18:45.3270,-0.117981,-1.998413,0.634399
2017-06-14 11:18:45.7310,-0.269348,-1.999939,0.818970
2017-06-14 11:18:46.0000,-0.187805,-1.635132,0.646118
2017-06-14 11:18:46.2700,-0.342102,-1.999939,0.790649
2017-06-14 11:18:46.6760,-0.210266,-1.678101,0.782349
2017-06-14 11:18:47.2170,-0.296204,-1.839722,0.711548
2017-06-14 11:18:47.4860,-0.134094,-1.752319,0.718384
2017-06-14 11:18:48.3010,-0.227356,-1.804565,0.760864
2017-06-14 11:18:48.5640,-0.164856,-1.999939,0.748169
2017-06-14 11:18:49.1140,-0.088684,-1.446655,0.677368
2017-06-14 11:18:49.5100,-0.108215,-1.999939,0.609985
2017-06-14 11:18:49.7800,-0.199036,-1.999939,0.844849
2017-06-14 11:18:50.0500,-0.221497,-1.633179,0.739380
2017-06-14 11:18:50.4560,-0.293762,-1.842163,0.718384
2017-06-14 11:18:50.7240,-0.146790,-1.711792,0.717896
2017-06-14 11:18:51.1300,-0.349426,-1.999939,0.736938
2017-06-14 11:18:51.3990,-0.252258,-1.999939,0.655396
2017-06-14 11:18:51.6710,-0.201477,-1.721558,0.634888
