Date-Time,x,y,z
2017-06-14 11:24:36.5930,0.217957,-1.824585,0.270142
2017-06-14 11:24:36.9970,0.227234,-1.829468,0.258423
2017-06-14 11:24:37.4040,0.198914,-1.834839,0.247192
2017-06-14 11:24:37.8100,0.183289,-1.828979,0.217896
2017-06-14 11:24:38.3580,0.207214,-1.922241,0.154907
2017-06-14 11:24:38.6170,0.194519,-1.999939,0.312134
2017-06-14 11:24:38.8870,0.287781,-1.678589,0.346802
2017-06-14 11:24:39.2950,0.137878,-1.870972,0.111450
2017-06-14 11:24:39.5620,0.143250,-1.550659,0.403931
2017-06-14 11:24:39.8320,0.466980,-1.999939,0.396606
2017-06-14 11:24:40.1020,0.272156,-1.717163,0.236938
2017-06-14 11:24:40.3720,0.149109,-1.961304,0.377563
2017-06-14 11:24:40.9150,0.344421,-1.999939,0.200317
2017-06-14 11:24:41.1820,0.114441,-1.519897,0.360474
2017-06-14 11:24:41.5890,0.264832,-1.992554,0.394165
2017-06-14 11:24:41.9920,0.229187,-1.999939,0.100708
2017-06-14 11:24:42.3980,0.153015,-1.678101,0.079712
2017-06-14 11:24:42.9400,0.113464,-1.591675,0.365356
2017-06-14 11:24:43.3440,0.479187,-1.765015,0.323364
2017-06-14 11:24:43.7470,0.315613,-1.999939,0.061646
2017-06-14 11:24:44.2890,0.286316,-1.900757,0.268188
2017-06-14 11:24:44.5570,0.211609,-1.724976,0.130493
2017-06-14 11:24:44.9620,0.103210,-1.326050,0.372192
2017-06-14 11:24:45.3680,0.523621,-1.813354,0.429810
2017-06-14 11:24:45.7730,0.362976,-1.999939,0.156372
