Date-Time,x,y,z
2017-06-14 11:29:31.1600,0.157898,0.054810,0.842407
2017-06-14 11:29:31.5650,0.119812,0.044067,0.859009
2017-06-14 11:29:31.8350,0.122253,0.056763,0.846313
2017-06-14 11:29:32.1050,0.073425,0.023071,0.855103
2017-06-14 11:29:32.3750,0.179382,0.244751,1.000122
2017-06-14 11:29:32.9280,0.207214,0.366333,0.859009
2017-06-14 11:29:33.4640,0.323914,0.438599,0.890259
2017-06-14 11:29:33.9980,0.155945,-0.126343,0.880981
2017-06-14 11:29:34.5400,0.111023,0.025513,0.862915
2017-06-14 11:29:34.8050,0.017761,-0.298706,0.755005
2017-06-14 11:29:35.0750,0.113464,0.192505,0.629517
2017-06-14 11:29:35.3450,0.069519,-0.483276,0.687134
2017-06-14 11:29:35.7530,0.366394,0.233521,0.956177
2017-06-14 11:29:36.0210,0.163269,-0.170288,0.783813
2017-06-14 11:29:36.2910,0.174500,-0.119019,0.790649
2017-06-14 11:29:36.5600,0.223328,0.117310,0.847290
2017-06-14 11:29:36.8310,0.352722,0.039185,0.738892
2017-06-14 11:29:37.3740,0.195984,0.421509,0.918091
2017-06-14 11:29:38.0480,-0.076477,-0.392944,0.728149
2017-06-14 11:29:38.5910,0.010437,0.293579,1.049927
2017-06-14 11:29:38.8560,0.135925,0.487915,1.134399
2017-06-14 11:29:39.2640,0.046082,-0.297241,0.757446
2017-06-14 11:29:39.5310,0.127136,-0.113647,0.849731
2017-06-14 11:29:39.9350,0.149597,-0.009644,0.873657
