Date-Time,x,y,z
2017-06-14 11:18:57.2040,-0.165833,-1.814331,0.793579
2017-06-14 11:18:57.6100,-0.164856,-1.820679,0.775513
2017-06-14 11:18:58.0150,-0.208801,-1.826050,0.733521
2017-06-14 11:18:58.4190,-0.194153,-1.853394,0.783325
2017-06-14 11:18:58.6900,-0.170227,-1.850952,0.783813
2017-06-14 11:18:58.9610,-0.105774,-1.839722,0.901978
2017-06-14 11:18:59.3670,-0.233704,-1.765015,0.750122
2017-06-14 11:18:59.9200,-0.236145,-1.884155,0.494751
2017-06-14 11:19:00.3090,-0.264954,-1.999939,0.738403
2017-06-14 11:19:00.5860,-0.225891,-1.677612,0.711548
2017-06-14 11:19:01.1250,-0.289368,-1.833862,0.654419
2017-06-14 11:19:01.3900,-0.232239,-1.999939,0.722290
2017-06-14 11:19:01.9370,-0.214172,-1.929077,0.725708
2017-06-14 11:19:02.1990,-0.045715,-1.489136,0.579712
2017-06-14 11:19:02.6040,-0.443665,-1.980347,0.620239
2017-06-14 11:19:03.1690,-0.267883,-1.999939,0.730103
2017-06-14 11:19:03.6920,-0.302551,-1.913452,0.577271
2017-06-14 11:19:04.3670,-0.210754,-1.756226,0.539185
2017-06-14 11:19:04.7680,-0.400696,-1.882202,0.584595
2017-06-14 11:19:05.1710,-0.351379,-1.999939,0.777466
2017-06-14 11:19:05.7110,-0.016907,-1.526733,0.624634
2017-06-14 11:19:06.1150,-0.349426,-1.999939,0.832153
2017-06-14 11:19:06.5210,-0.304504,-1.999939,0.851196
2017-06-14 11:19:06.7900,-0.098450,-1.720093,0.765259
2017-06-14 11:19:07.0630,-0.307922,-1.999939,0.808228
2017-06-14 11:19:07.3290,-0.197083,-1.738159,0.884888
2017-06-14 11:19:07.7350,-0.095520,-1.999939,1.016235
2017-06-14 11:19:08.2760,-0.109680,-1.735718,0.903442
