Date-Time,x,y,z
2017-06-14 11:28:52.8210,0.142273,0.071899,0.846802
2017-06-14 11:28:53.0910,0.143738,0.055786,0.817505
2017-06-14 11:28:53.3610,0.097351,0.030396,0.850708
2017-06-14 11:28:53.6300,0.134949,-0.037964,0.855591
2017-06-14 11:28:53.9000,0.054382,0.332153,0.913208
2017-06-14 11:28:54.3060,0.161804,-0.160522,0.819946
2017-06-14 11:28:54.5760,0.326355,0.153931,0.747192
2017-06-14 11:28:54.9810,0.348328,0.008911,0.625610
2017-06-14 11:28:55.2510,0.256042,-0.221558,0.647583
2017-06-14 11:28:55.6610,0.237976,0.267700,0.728638
2017-06-14 11:28:56.0610,0.199402,0.411255,1.043579
2017-06-14 11:28:56.4660,0.110046,-0.196655,0.814575
2017-06-14 11:28:56.8710,0.194519,0.112427,0.818481
2017-06-14 11:28:57.2750,0.168640,0.109985,0.858521
2017-06-14 11:28:57.6800,0.177917,0.360962,0.875122
2017-06-14 11:28:58.2270,-0.032043,-0.349976,0.727173
2017-06-14 11:28:58.6260,0.068054,-0.044800,0.907349
2017-06-14 11:28:59.0370,0.087097,0.465942,0.664185
2017-06-14 11:28:59.4370,0.101746,0.361938,1.109985
2017-06-14 11:28:59.8400,0.223328,0.353638,0.937622
2017-06-14 11:29:00.2460,0.025085,-0.173218,0.854614
2017-06-14 11:29:00.6520,0.071472,-0.159546,0.798950
2017-06-14 11:29:01.0550,0.023132,0.150513,0.816040
2017-06-14 11:29:01.4600,0.044617,0.369263,1.088989
2017-06-14 11:29:01.8650,0.096375,-0.144409,0.792114
2017-06-14 11:29:02.2710,0.196960,0.033813,0.837524
2017-06-14 11:29:02.6750,0.234558,0.067505,0.799927
2017-06-14 11:29:03.0800,0.166687,0.186157,0.825806
2017-06-14 11:29:03.3520,0.137390,0.209595,0.729126
2017-06-14 11:29:03.6200,0.026062,-0.324585,0.767700
