Date-Time,x,y,z
2017-06-14 11:26:42.6810,0.133484,0.047485,0.847778
2017-06-14 11:26:43.0860,0.107605,-0.078003,1.104126
2017-06-14 11:26:43.4950,0.166687,0.311157,0.926392
2017-06-14 11:26:43.8980,0.248718,-0.302124,0.627563
2017-06-14 11:26:44.3030,0.200867,0.286255,0.603149
2017-06-14 11:26:44.7060,0.311707,0.538696,1.066528
2017-06-14 11:26:44.9770,0.116882,-0.127319,0.800903
2017-06-14 11:26:45.2470,0.005066,0.421997,0.607544
2017-06-14 11:26:45.6530,0.259949,0.345337,1.036743
2017-06-14 11:26:46.0560,0.083191,-0.290405,0.848267
2017-06-14 11:26:46.4630,0.293152,0.095825,0.861938
2017-06-14 11:26:46.8670,0.210632,0.111938,0.945435
2017-06-14 11:26:47.2720,0.242859,0.378540,0.922974
2017-06-14 11:26:47.6760,0.070984,-0.279175,0.722778
2017-06-14 11:26:48.0830,0.039246,-0.342163,0.729614
2017-06-14 11:26:48.4860,0.049011,0.237427,0.818970
2017-06-14 11:26:48.8930,0.030457,0.339966,1.086060
2017-06-14 11:26:49.2960,0.219910,-0.065796,0.883423
2017-06-14 11:26:49.7040,0.115906,-0.200073,0.831665
2017-06-14 11:26:49.9730,0.459167,-0.075562,0.587524
2017-06-14 11:26:50.2430,0.046082,-0.331909,0.758423
2017-06-14 11:26:50.6460,0.129089,0.196411,0.737915
2017-06-14 11:26:51.0520,0.288269,0.560181,1.221313
2017-06-14 11:26:51.4570,0.117859,0.086548,0.805786
2017-06-14 11:26:51.8620,0.136414,-0.341675,0.727173
2017-06-14 11:26:52.2660,0.231140,0.070435,0.880493
2017-06-14 11:26:52.5380,0.201843,-0.037964,0.741821
