Date-Time,x,y,z
2017-06-02 16:44:15.6710,-0.108704,0.890259,-0.414917
2017-06-02 16:44:16.0760,-0.060852,0.935181,-0.489136
2017-06-02 16:44:16.4820,-0.030579,0.907349,-0.389526
2017-06-02 16:44:16.8870,-0.291321,0.855103,-0.362671
2017-06-02 16:44:17.1570,-0.267395,1.129517,-0.389038
2017-06-02 16:44:17.4260,-0.185852,0.929321,-0.293335
2017-06-02 16:44:17.8370,-0.092590,1.169067,-0.451538
2017-06-02 16:44:18.3770,-0.228821,0.782837,-0.329956
2017-06-02 16:44:18.7800,-0.186829,1.002075,-0.296265
2017-06-02 16:44:19.0460,-0.097473,1.108521,-0.378784
2017-06-02 16:44:19.3150,-0.151184,0.759888,-0.372925
2017-06-02 16:44:19.7240,-0.227356,1.431274,-0.399292
2017-06-02 16:44:20.1400,-0.101868,0.797974,-0.327515
2017-06-02 16:44:20.3960,-0.174622,0.738403,-0.313843
2017-06-02 16:44:20.8020,-0.056458,0.920044,-0.134644
2017-06-02 16:44:21.0730,-0.072571,0.690552,-0.269897
2017-06-02 16:44:21.3410,-0.370911,0.772583,-0.237671
2017-06-02 16:44:21.8880,-0.157532,0.719360,-0.334839
2017-06-02 16:44:22.1510,-0.134583,0.765259,-0.307495
2017-06-02 16:44:22.5570,-0.231750,0.861938,-0.361694
2017-06-02 16:44:22.9600,-0.297668,1.348267,-0.400757
2017-06-02 16:44:23.5040,-0.157532,0.783813,-0.360718
2017-06-02 16:44:23.7730,-0.187805,0.778931,-0.367065
2017-06-02 16:44:24.1790,0.061707,0.869263,-0.221069
2017-06-02 16:44:24.4460,-0.223938,0.939087,-0.440796
2017-06-02 16:44:24.7300,-0.403625,0.744751,-0.167358
2017-06-02 16:44:25.1230,-0.290344,0.990845,-0.385132
2017-06-02 16:44:25.6660,-0.093567,0.746216,-0.387085
2017-06-02 16:44:26.0670,-0.316223,0.970825,-0.377319
2017-06-02 16:44:26.3360,-0.286438,1.007446,-0.370483
2017-06-02 16:44:26.6060,-0.167786,1.031860,-0.277222
2017-06-02 16:44:26.8760,-0.093567,0.932739,-0.352417
2017-06-02 16:44:27.4210,-0.351379,0.776489,-0.388062
2017-06-02 16:44:27.6850,-0.164856,0.811646,-0.479858
2017-06-02 16:44:27.9560,-0.218567,1.179810,-0.432495
2017-06-02 16:44:28.3630,-0.080383,0.835083,-0.319702
2017-06-02 16:44:28.6310,-0.222473,0.735474,-0.196167
2017-06-02 16:44:28.9000,-0.117004,0.735962,-0.352417
2017-06-02 16:44:29.1720,-0.204895,0.913696,-0.356323
2017-06-02 16:44:29.4450,-0.067200,0.845825,-0.318237
2017-06-02 16:44:29.7120,-0.179016,0.963989,-0.345093
2017-06-02 16:44:29.9800,-0.156067,0.706177,-0.328003
2017-06-02 16:44:30.2520,-0.147766,0.895630,-0.426636
2017-06-02 16:44:30.8000,-0.061829,0.696411,-0.266968
2017-06-02 16:44:31.1960,-0.269836,0.721313,-0.118530
2017-06-02 16:44:31.7410,-0.294739,0.962524,-0.370483
2017-06-02 16:44:32.1420,-0.135071,1.095337,-0.431030
2017-06-02 16:44:32.4100,-0.171692,0.820923,-0.328491
2017-06-02 16:44:32.8160,-0.140442,1.052368,-0.182007
2017-06-02 16:44:33.0900,-0.126770,0.791138,-0.237183
2017-06-02 16:44:33.4910,-0.181458,0.893677,-0.379272
2017-06-02 16:44:33.7600,-0.244446,1.383911,-0.347046
2017-06-02 16:44:34.0300,-0.113586,0.932739,-0.265503
2017-06-02 16:44:34.4350,-0.283508,1.228638,-0.409058
2017-06-02 16:44:34.7110,-0.137024,0.834106,-0.368530
2017-06-02 16:44:34.9750,-0.061829,1.118774,-0.225952
2017-06-02 16:44:35.3810,-0.105774,0.857056,-0.319702
2017-06-02 16:44:35.7870,-0.142395,0.738892,-0.285034
2017-06-02 16:44:36.0560,-0.278137,1.017700,-0.325073
2017-06-02 16:44:36.3260,-0.036926,0.821411,-0.114624
2017-06-02 16:44:36.5960,-0.181946,1.020142,-0.405640
2017-06-02 16:44:37.1450,-0.131165,0.764282,-0.341675
2017-06-02 16:44:37.4050,-0.116028,1.097290,-0.278198
2017-06-02 16:44:37.6760,-0.249817,1.220337,-0.475952
2017-06-02 16:44:37.9460,-0.208313,0.972778,-0.386108
2017-06-02 16:44:38.2160,-0.124817,0.746216,-0.351929
2017-06-02 16:44:38.4850,-0.161926,0.957153,-0.312866
2017-06-02 16:44:38.7600,-0.097961,0.838501,-0.265991
2017-06-02 16:44:39.1620,-0.173157,0.729614,-0.289917
2017-06-02 16:44:39.5650,-0.075989,0.936157,-0.082397
2017-06-02 16:44:39.9720,-0.188782,1.112427,-0.454956
2017-06-02 16:44:40.3750,-0.152649,0.750610,-0.367554
2017-06-02 16:44:40.7810,-0.151672,1.047974,-0.248901
2017-06-02 16:44:41.0500,-0.121887,1.137817,-0.338745
2017-06-02 16:44:41.3210,-0.147278,1.005005,-0.454468
2017-06-02 16:44:41.8660,-0.259094,1.419067,-0.382690
2017-06-02 16:44:42.2670,-0.096985,0.801392,-0.239624
2017-06-02 16:44:42.5360,-0.146790,0.785767,-0.350952
2017-06-02 16:44:42.8060,-0.022766,0.859985,-0.110229
2017-06-02 16:44:43.2110,-0.053528,0.673462,-0.252319
2017-06-02 16:44:43.4810,-0.362122,0.940063,-0.271851
2017-06-02 16:44:43.8860,-0.299133,1.063599,-0.307983
2017-06-02 16:44:44.1550,-0.176575,1.046021,-0.281128
2017-06-02 16:44:44.4280,-0.216125,1.218872,-0.425659
2017-06-02 16:44:44.6950,-0.071106,0.838501,-0.396851
2017-06-02 16:44:45.1010,-0.086731,0.768188,-0.388550
2017-06-02 16:44:45.3700,-0.088684,0.805298,-0.321167
2017-06-02 16:44:45.6400,-0.246887,0.778931,-0.250854
2017-06-02 16:44:46.0450,-0.213684,0.914185,-0.369995
2017-06-02 16:44:46.4520,-0.033997,0.766235,-0.340210
2017-06-02 16:44:46.9950,-0.355286,0.988403,-0.380249
2017-06-02 16:44:47.2600,-0.245422,1.078247,-0.310913
2017-06-02 16:44:47.6670,-0.074036,0.777466,-0.388550
2017-06-02 16:44:48.0700,-0.193176,0.960083,-0.432983
2017-06-02 16:44:48.3460,-0.200989,0.984009,-0.309937
2017-06-02 16:44:48.6110,-0.184875,0.961548,-0.260132
2017-06-02 16:44:49.0170,0.005554,1.030884,-0.390991
2017-06-02 16:44:49.4270,-0.252258,0.846802,-0.344116
2017-06-02 16:44:49.6940,-0.263977,0.842407,-0.374390
2017-06-02 16:44:49.9600,-0.089172,0.855591,-0.180054
2017-06-02 16:44:50.2300,-0.043274,0.870728,-0.370483
2017-06-02 16:44:50.6360,-0.165833,1.205200,-0.659546
2017-06-02 16:44:50.9050,-0.122375,0.725708,-0.499390
2017-06-02 16:44:51.1820,-0.154114,1.008911,-0.506226
2017-06-02 16:44:51.5800,-0.110657,0.794067,-0.370483
