Date-Time,x,y,z
2017-06-14 16:33:32.8520,-0.180420,-0.838989,0.226318
2017-06-14 16:33:33.2370,-0.103271,-0.857544,0.213135
2017-06-14 16:33:33.5070,-0.196045,-0.913208,0.298096
2017-06-14 16:33:33.7770,-0.178467,-0.847290,0.303955
2017-06-14 16:33:34.1910,-0.265869,-0.828735,0.146240
2017-06-14 16:33:34.4520,-0.340576,-0.718872,-0.243896
2017-06-14 16:33:34.7220,-0.347412,-0.814575,-0.004639
2017-06-14 16:33:34.9930,-0.315186,-0.891235,0.169678
2017-06-14 16:33:35.2620,-0.346436,-0.983032,0.063721
2017-06-14 16:33:35.6670,-0.174561,-0.889771,0.101318
2017-06-14 16:33:36.0730,-0.247803,-0.987915,0.120850
2017-06-14 16:33:36.4770,-0.289795,-1.130981,0.110107
2017-06-14 16:33:36.7470,-0.279053,-0.695923,-0.109619
2017-06-14 16:33:37.0170,-0.301514,-0.613403,-0.174072
2017-06-14 16:33:37.4230,-0.231201,-0.794556,0.235596
2017-06-14 16:33:37.8270,-0.325439,-0.943970,-0.069580
2017-06-14 16:33:38.3730,-0.234131,-0.855591,-0.072510
2017-06-14 16:33:38.6430,-0.289307,-0.848755,0.171143
2017-06-14 16:33:39.0450,-0.308838,-1.062622,0.030029
2017-06-14 16:33:39.3120,-0.295654,-0.893188,0.030518
2017-06-14 16:33:39.7170,-0.262451,-0.901489,0.071045
2017-06-14 16:33:39.9870,-0.343018,-1.108521,0.188721
2017-06-14 16:33:40.3930,-0.212646,-0.694458,-0.312256
2017-06-14 16:33:40.7980,-0.115967,-0.761353,0.127686
2017-06-14 16:33:41.2030,-0.106201,-0.800415,0.215576
2017-06-14 16:33:41.6070,-0.208740,-0.836060,0.290771
2017-06-14 16:33:42.0130,-0.143799,-0.870728,0.311279
2017-06-14 16:33:42.2820,-0.128174,-0.889771,0.276123
2017-06-14 16:33:42.5520,-0.127686,-0.884399,0.273193
2017-06-14 16:33:42.9570,-0.105225,-0.893188,0.259521
