Date-Time,x,y,z
2017-07-05 17:35:01.7720,0.185608,-0.966187,-0.164673
2017-07-05 17:35:02.1680,0.258850,-0.992065,-0.210571
2017-07-05 17:35:02.5950,0.328186,-0.831909,-0.127075
2017-07-05 17:35:03.1150,0.683167,-1.489624,0.397339
2017-07-05 17:35:03.5190,0.196350,-0.482300,-0.029907
2017-07-05 17:35:03.9240,0.188538,-0.577026,-0.025513
2017-07-05 17:35:04.3310,0.409241,-1.081421,0.219604
2017-07-05 17:35:04.7340,0.722229,-1.406616,0.393433
2017-07-05 17:35:05.1400,0.045959,-0.306030,0.088745
2017-07-05 17:35:05.4080,0.241760,-0.591187,0.061401
2017-07-05 17:35:05.6780,0.460022,-1.048218,0.209839
2017-07-05 17:35:06.0830,0.696838,-1.267456,0.422241
2017-07-05 17:35:06.4890,0.292542,-0.517944,0.025757
2017-07-05 17:35:06.8940,0.435120,-0.674194,0.045776
2017-07-05 17:35:07.4370,0.468811,-0.894409,0.304565
2017-07-05 17:35:07.7030,0.672424,-1.447632,0.468628
2017-07-05 17:35:08.1090,0.140198,-0.168823,0.023315
2017-07-05 17:35:08.3780,0.159729,-0.717651,-0.074341
2017-07-05 17:35:08.6480,0.247620,-0.959351,-0.066040
2017-07-05 17:35:09.0540,0.301331,-0.959351,-0.029419
2017-07-05 17:35:09.3230,0.282288,-0.904663,-0.089478
2017-07-05 17:35:09.5930,0.293030,-0.963257,-0.036743
2017-07-05 17:35:09.8630,0.235413,-0.939819,-0.112915
2017-07-05 17:35:10.2690,0.260315,-0.937378,-0.079712
2017-07-05 17:35:10.6740,0.280334,-0.961792,-0.116333
2017-07-05 17:35:10.9430,0.281311,-0.931030,-0.135864
2017-07-05 17:35:11.2130,0.264221,-0.949097,-0.104614
