Date-Time,x,y,z
2017-07-05 16:18:11.2720,0.227783,0.835327,0.302307
2017-07-05 16:18:11.6780,0.132080,0.545288,-0.124939
2017-07-05 16:18:11.9490,0.193115,1.018433,-0.413513
2017-07-05 16:18:12.2170,0.311279,1.510620,-0.602478
2017-07-05 16:18:12.6240,0.222900,0.939819,-0.277771
2017-07-05 16:18:13.0270,0.225342,0.917358,0.210022
2017-07-05 16:18:13.4320,0.260010,0.872925,0.232971
2017-07-05 16:18:13.8380,0.204834,1.081909,-0.269470
2017-07-05 16:18:14.2440,0.349365,1.475952,-0.571716
2017-07-05 16:18:14.5120,0.251709,0.963257,-0.306091
2017-07-05 16:18:14.7860,0.118408,0.554077,-0.137146
2017-07-05 16:18:15.1870,0.213623,0.996460,0.287659
2017-07-05 16:18:15.5940,0.073486,0.499390,-0.102478
2017-07-05 16:18:16.1360,0.232178,1.046265,-0.382263
2017-07-05 16:18:16.4020,0.313721,1.265015,-0.418396
2017-07-05 16:18:16.8100,0.215088,0.822632,-0.160583
2017-07-05 16:18:17.0770,0.254639,0.990112,0.214905
2017-07-05 16:18:17.3470,0.229248,0.910522,0.216858
2017-07-05 16:18:17.7530,0.044189,0.419312,-0.203064
2017-07-05 16:18:18.1580,0.286377,1.152222,-0.427185
2017-07-05 16:18:18.5610,0.295654,1.179565,-0.410095
2017-07-05 16:18:18.9680,0.228271,0.678101,-0.157654
2017-07-05 16:18:19.3720,0.259521,0.782104,0.081116
2017-07-05 16:18:19.6420,0.212158,0.887085,0.346252
2017-07-05 16:18:19.9110,0.219482,0.916382,0.342834
2017-07-05 16:18:20.3170,0.232117,0.915894,0.305603
2017-07-05 16:18:20.7220,0.252747,0.921814,0.278442
2017-07-05 16:18:21.1280,0.231750,0.912048,0.282837
2017-07-05 16:18:21.5500,0.225891,0.931580,0.280396
