Date-Time,x,y,z
2017-07-05 17:37:08.6760,-0.252258,1.023682,-0.028687
2017-07-05 17:37:09.0680,-0.308899,1.061768,-0.034058
2017-07-05 17:37:09.4730,-0.244446,0.968994,-0.075562
2017-07-05 17:37:09.7430,-0.244446,1.004150,-0.089233
2017-07-05 17:37:10.0130,-0.251770,1.106201,-0.090210
2017-07-05 17:37:10.2830,-0.179016,0.824463,-0.090698
2017-07-05 17:37:10.5520,-0.269836,0.740479,-0.081421
2017-07-05 17:37:10.8230,-0.258606,0.742432,0.362915
2017-07-05 17:37:11.2290,-0.638000,1.582275,0.750122
2017-07-05 17:37:11.6340,-0.192688,0.389893,0.077759
2017-07-05 17:37:12.1870,-0.272766,0.814697,0.238403
2017-07-05 17:37:12.5780,-0.436829,1.194580,0.520142
2017-07-05 17:37:12.9840,0.110046,0.037354,-0.133667
2017-07-05 17:37:13.3890,-0.379700,1.011963,0.509888
2017-07-05 17:37:13.7930,-0.571106,1.312256,0.497681
2017-07-05 17:37:14.1990,0.057312,0.257568,-0.134644
2017-07-05 17:37:14.6030,-0.417786,0.922119,0.704224
2017-07-05 17:37:15.0090,-1.027161,1.904541,0.081177
2017-07-05 17:37:15.2780,-0.279602,0.248291,0.167603
2017-07-05 17:37:15.5470,-0.125793,0.959717,-0.157593
2017-07-05 17:37:15.9540,-0.192688,1.027588,-0.046753
2017-07-05 17:37:16.2270,-0.147278,0.927490,-0.053101
2017-07-05 17:37:16.4920,-0.175598,0.827393,-0.034058
2017-07-05 17:37:16.7620,-0.158508,1.008057,-0.086792
2017-07-05 17:37:17.1680,-0.210754,0.985596,-0.054077
2017-07-05 17:37:17.5720,-0.219055,0.993408,-0.030151
2017-07-05 17:37:17.8450,-0.217590,0.987549,-0.015991
