Date-Time,x,y,z
2017-07-05 16:24:12.3940,-0.240051,-0.933350,0.221313
2017-07-05 16:24:12.7990,-0.178528,-0.946045,0.322876
2017-07-05 16:24:13.0700,-0.130188,-0.831299,0.319946
2017-07-05 16:24:13.3400,-0.078430,-0.265381,-0.056519
2017-07-05 16:24:13.7460,-0.533997,-1.045166,-0.576050
2017-07-05 16:24:14.1490,-0.539856,-1.033936,-0.520386
2017-07-05 16:24:14.5560,-0.250793,-0.589111,-0.121460
2017-07-05 16:24:14.9650,-0.215637,-1.028076,0.321899
2017-07-05 16:24:15.3650,-0.190735,-0.371338,0.021118
2017-07-05 16:24:15.6350,-0.526184,-0.986572,-0.528687
2017-07-05 16:24:15.9040,-0.838684,-1.348389,-0.761108
2017-07-05 16:24:16.3100,-0.461731,-0.825928,-0.290405
2017-07-05 16:24:16.7140,-0.146790,-0.640381,0.173950
2017-07-05 16:24:16.9850,-0.236145,-0.908447,0.259399
2017-07-05 16:24:17.2540,-0.140442,-0.473877,0.088013
2017-07-05 16:24:17.5240,-0.332336,-0.777588,-0.299683
2017-07-05 16:24:17.9290,-0.713196,-1.166748,-0.674683
2017-07-05 16:24:18.1990,-0.504211,-0.902100,-0.388062
2017-07-05 16:24:18.4730,-0.334290,-0.635010,-0.121460
2017-07-05 16:24:18.8750,-0.204895,-0.796143,0.157349
2017-07-05 16:24:19.2810,-0.162415,-0.768799,0.239868
2017-07-05 16:24:19.6860,-0.488098,-0.946533,-0.376343
2017-07-05 16:24:20.0910,-0.630188,-1.207275,-0.627808
2017-07-05 16:24:20.3590,-0.489075,-0.889404,-0.369507
2017-07-05 16:24:20.6320,-0.282043,-0.643799,-0.135132
2017-07-05 16:24:21.0400,-0.218079,-0.975342,0.296509
2017-07-05 16:24:21.4400,-0.169250,-0.916260,0.394653
2017-07-05 16:24:21.8440,-0.290344,-0.770264,0.401489
2017-07-05 16:24:22.2490,-0.278625,-0.889404,0.498657
2017-07-05 16:24:22.5200,-0.278137,-0.776611,0.487915
2017-07-05 16:24:22.7900,-0.271790,-0.823975,0.501099
2017-07-05 16:24:23.1960,-0.234192,-0.855225,0.404907
