Date-Time,x,y,z
2017-07-05 16:23:12.8640,-0.187805,-0.875244,0.264282
2017-07-05 16:23:13.2650,-0.339172,-0.686279,-0.406128
2017-07-05 16:23:13.5350,-0.798645,-1.318604,-0.867554
2017-07-05 16:23:13.8050,-0.613586,-0.988037,-0.592651
2017-07-05 16:23:14.2100,-0.242493,-0.538330,-0.068726
2017-07-05 16:23:14.6170,-0.263977,-0.925049,0.272095
2017-07-05 16:23:15.0210,-0.236145,-0.933350,0.233032
2017-07-05 16:23:15.4250,-0.264465,-0.431885,-0.397827
2017-07-05 16:23:15.8300,-0.468079,-1.114990,-0.748413
2017-07-05 16:23:16.1010,-0.498840,-0.971924,-0.469604
2017-07-05 16:23:16.3700,-0.305969,-0.552002,-0.173706
2017-07-05 16:23:16.6400,-0.211731,-0.562256,0.005493
2017-07-05 16:23:16.9100,-0.151672,-0.904053,0.229614
2017-07-05 16:23:17.1800,-0.183899,-0.920166,0.198853
2017-07-05 16:23:17.4500,-0.202942,-0.827881,0.140747
2017-07-05 16:23:17.7200,-0.377258,-0.771240,-0.419800
2017-07-05 16:23:17.9900,-0.471008,-1.008057,-0.785522
2017-07-05 16:23:18.2600,-0.512512,-0.984619,-0.677124
2017-07-05 16:23:18.5300,-0.362122,-0.745850,-0.356323
2017-07-05 16:23:18.9350,-0.289368,-1.106201,0.234009
2017-07-05 16:23:19.3400,-0.293274,-0.944092,0.183716
2017-07-05 16:23:19.7460,-0.145813,-0.482666,-0.040894
2017-07-05 16:23:20.1510,-0.657532,-0.959717,-0.641968
2017-07-05 16:23:20.5550,-0.565247,-1.026611,-0.636597
2017-07-05 16:23:20.8250,-0.330872,-0.637451,-0.211304
2017-07-05 16:23:21.0960,-0.126770,-0.430908,0.031860
2017-07-05 16:23:21.5010,-0.171204,-0.944580,0.270142
2017-07-05 16:23:21.9060,-0.192200,-0.962646,0.292114
2017-07-05 16:23:22.4490,-0.233215,-0.939209,0.308228
2017-07-05 16:23:22.8510,-0.175598,-0.920166,0.335083
2017-07-05 16:23:23.2550,-0.193176,-0.928467,0.337036
