Date-Time,x,y,z
2017-07-05 17:34:49.8830,0.225159,-0.930542,-0.271118
2017-07-05 17:34:50.2880,0.227112,-0.934448,-0.284790
2017-07-05 17:34:50.8300,0.044006,-0.458862,-0.142700
2017-07-05 17:34:51.2340,0.378479,-0.813843,0.056519
2017-07-05 17:34:51.6390,0.679749,-1.374878,0.422241
2017-07-05 17:34:52.0430,0.172913,-0.488647,0.145386
2017-07-05 17:34:52.4480,0.209534,-0.658081,0.010620
2017-07-05 17:34:52.8550,0.610413,-1.272827,0.348999
2017-07-05 17:34:53.2590,0.569397,-1.110229,0.158569
2017-07-05 17:34:53.5280,0.069397,-0.489624,-0.065552
2017-07-05 17:34:53.7980,0.253479,-0.615112,-0.029907
2017-07-05 17:34:54.2040,0.649963,-1.077026,0.245972
2017-07-05 17:34:54.6100,0.588928,-1.436890,0.371460
2017-07-05 17:34:55.0130,0.085022,-0.399292,-0.002075
2017-07-05 17:34:55.4180,0.252991,-0.657104,-0.016724
2017-07-05 17:34:55.8240,0.446838,-0.910034,0.275757
2017-07-05 17:34:56.2290,0.640198,-1.264038,0.313843
2017-07-05 17:34:56.4980,0.086487,-0.322144,-0.001099
2017-07-05 17:34:56.7680,0.245667,-0.843628,-0.180786
2017-07-05 17:34:57.1730,0.275940,-1.031128,-0.082153
2017-07-05 17:34:57.5790,0.172424,-0.895874,-0.204712
2017-07-05 17:34:57.9840,0.219788,-1.002319,-0.100220
2017-07-05 17:34:58.3890,0.193420,-0.981323,-0.162231
2017-07-05 17:34:58.6580,0.210999,-0.978394,-0.144165
2017-07-05 17:34:58.9290,0.226624,-0.926147,-0.186646
