Date-Time,x,y,z
2017-06-13 10:00:47.7940,-0.626160,0.021790,1.068054
2017-06-13 10:00:48.1960,-0.418152,-0.028992,1.014343
2017-06-13 10:00:48.6000,-0.472351,0.137512,1.099304
2017-06-13 10:00:49.0050,-0.425964,0.530090,0.624207
2017-06-13 10:00:49.2770,-0.252136,0.542297,0.558777
2017-06-13 10:00:49.5460,-0.351746,0.489563,0.715027
2017-06-13 10:00:49.9520,-0.326355,0.307922,1.125183
2017-06-13 10:00:50.3560,-0.517761,0.209778,1.229675
2017-06-13 10:00:50.7600,-0.321960,0.420715,0.751648
2017-06-13 10:00:51.0300,-0.406921,0.468079,0.428406
2017-06-13 10:00:51.3000,-0.253601,0.580872,0.506531
2017-06-13 10:00:51.5720,-0.532410,0.317688,0.722351
2017-06-13 10:00:51.9770,-0.453796,0.116028,1.117371
2017-06-13 10:00:52.3800,-0.419617,0.103821,1.044617
2017-06-13 10:00:52.9210,-0.415710,0.264465,0.854675
2017-06-13 10:00:53.3260,-0.297546,0.680969,0.537781
2017-06-13 10:00:53.8680,-0.362976,0.586731,0.378601
2017-06-13 10:00:54.1360,-0.299500,0.240540,0.788757
2017-06-13 10:00:54.5400,-0.472839,0.108704,1.198425
2017-06-13 10:00:54.9460,-0.372253,0.287415,0.823914
2017-06-13 10:00:55.3520,-0.327820,0.566711,0.553894
2017-06-13 10:00:55.7550,0.030090,0.519348,0.617371
2017-06-13 10:00:56.1610,-0.391296,0.380188,0.898132
2017-06-13 10:00:56.4310,-0.431335,0.263489,0.974304
2017-06-13 10:00:56.7000,-0.346863,0.086731,0.994812
2017-06-13 10:00:57.1060,-0.391785,0.275696,0.871277
2017-06-13 10:00:57.5100,-0.379578,0.505676,0.565125
2017-06-13 10:00:57.9150,0.315735,0.496887,0.546570
2017-06-13 10:00:58.3200,-0.654968,0.781555,0.554382
2017-06-13 10:00:58.8600,-0.524109,0.739563,0.520691
2017-06-13 10:00:59.1310,-0.507019,0.752747,0.504089
2017-06-13 10:00:59.5350,-0.408386,0.725891,0.545105
2017-06-13 10:00:59.8060,-0.525574,0.718079,0.552429
2017-06-13 10:01:00.0800,-0.486511,0.731750,0.582703
