Date-Time,x,y,z
2017-06-12 18:04:23.8650,0.130554,0.448486,1.011658
2017-06-12 18:04:24.2700,0.158875,0.000732,1.058044
2017-06-12 18:04:24.6840,-0.026672,0.181885,1.008728
2017-06-12 18:04:24.9480,-0.215637,0.055420,0.837341
2017-06-12 18:04:25.2150,-0.478333,-0.127686,1.594177
2017-06-12 18:04:25.6220,-0.214661,0.260010,0.868591
2017-06-12 18:04:25.8900,-0.278625,0.308350,0.328552
2017-06-12 18:04:26.1610,-0.495422,-0.185791,1.445251
2017-06-12 18:04:26.5710,-0.405579,-0.108154,1.229919
2017-06-12 18:04:26.8400,-0.149719,0.203369,0.151306
2017-06-12 18:04:27.2420,-0.480774,0.001221,1.367615
2017-06-12 18:04:27.6470,-0.378723,0.201904,0.988708
2017-06-12 18:04:28.0510,-0.137512,0.207764,0.684998
2017-06-12 18:04:28.3230,-0.583801,-0.160889,1.280212
2017-06-12 18:04:28.5910,-0.338684,0.208252,0.934998
2017-06-12 18:04:28.9970,-0.336243,0.278076,0.416931
2017-06-12 18:04:29.4020,-0.485168,-0.281494,1.558044
2017-06-12 18:04:29.9430,-0.263489,0.236572,0.630310
2017-06-12 18:04:30.2100,-0.211243,0.122803,0.921326
2017-06-12 18:04:30.7540,-0.071106,0.206787,0.951111
2017-06-12 18:04:31.0240,-0.269348,0.761475,1.104919
2017-06-12 18:04:31.2900,-0.213196,0.682373,0.745056
2017-06-12 18:04:31.6950,-0.288391,0.593018,0.606873
2017-06-12 18:04:31.9650,-0.335754,0.887939,0.230896
2017-06-12 18:04:32.3720,-0.335754,0.908936,-0.045959
2017-06-12 18:04:32.7770,-0.262024,0.976807,-0.198303
2017-06-12 18:04:33.1820,-0.212219,0.954346,-0.143127
2017-06-12 18:04:33.7200,-0.201843,1.065430,-0.088196
