Date-Time,x,y,z
2017-06-12 18:01:20.6770,0.342896,1.011780,0.178345
2017-06-12 18:01:21.0760,-0.035034,0.883362,0.023560
2017-06-12 18:01:21.4820,0.216919,0.844788,0.180298
2017-06-12 18:01:21.8880,0.193481,0.778381,-0.276733
2017-06-12 18:01:22.1570,-0.122925,0.484436,-0.890991
2017-06-12 18:01:22.4260,-0.176636,0.220764,-1.120972
2017-06-12 18:01:22.8330,-0.352417,0.193909,-0.902222
2017-06-12 18:01:23.2380,0.039673,0.191956,-0.879272
2017-06-12 18:01:23.6580,0.199341,0.467346,-0.564819
2017-06-12 18:01:24.0480,0.505493,0.239319,-0.961304
2017-06-12 18:01:24.4530,0.552856,0.019592,-1.204956
2017-06-12 18:01:24.8560,0.194458,0.536682,-0.594116
2017-06-12 18:01:25.1260,0.175903,0.243713,-0.498901
2017-06-12 18:01:25.3980,0.425415,0.233948,-0.997437
2017-06-12 18:01:26.0770,0.490356,0.191467,-0.988159
2017-06-12 18:01:26.3410,0.118286,0.271057,-0.411499
2017-06-12 18:01:26.6110,0.566040,0.319397,-0.903687
2017-06-12 18:01:27.0170,0.512817,0.178772,-1.138550
2017-06-12 18:01:27.5570,0.276001,0.387268,-0.567749
2017-06-12 18:01:27.8260,0.232056,0.252502,-0.548706
2017-06-12 18:01:28.2330,0.640747,0.186584,-1.333374
2017-06-12 18:01:28.5050,0.425415,0.406311,-0.919800
2017-06-12 18:01:28.9090,0.234009,0.503967,-0.497925
2017-06-12 18:01:29.3110,0.083130,0.449280,-0.369995
2017-06-12 18:01:29.5860,0.475220,0.148499,-1.290894
2017-06-12 18:01:29.9890,0.376587,0.458069,-0.762085
2017-06-12 18:01:30.3950,0.144653,0.513733,-0.676147
2017-06-12 18:01:30.7980,0.083130,0.017151,-1.040405
2017-06-12 18:01:31.2020,0.318481,0.090881,-0.653198
2017-06-12 18:01:31.4720,0.148560,0.312561,-1.173218
2017-06-12 18:01:31.7410,0.013306,0.265686,-1.063354
2017-06-12 18:01:32.1460,-0.016968,0.413635,-0.828491
2017-06-12 18:01:32.5530,0.258423,0.373108,-1.359741
2017-06-12 18:01:32.9560,0.256958,0.780823,-0.513062
2017-06-12 18:01:33.2290,0.260376,0.773499,-0.433960
2017-06-12 18:01:33.4960,0.036743,0.960022,-0.011108
2017-06-12 18:01:33.7710,0.001587,0.821350,-0.406616
2017-06-12 18:01:34.1720,0.813110,1.217346,0.734009
