Date-Time,x,y,z
2017-06-13 10:01:05.4750,-0.371277,0.954407,0.676453
2017-06-13 10:01:05.8800,-0.271667,0.898254,0.195496
2017-06-13 10:01:06.2900,-0.439636,0.789856,0.033875
2017-06-13 10:01:06.6900,-0.504089,0.738586,0.760437
2017-06-13 10:01:06.9600,-0.237488,0.294250,0.510437
2017-06-13 10:01:07.2310,-0.367371,0.114563,1.109558
2017-06-13 10:01:07.6380,0.006653,-0.004089,1.092468
2017-06-13 10:01:08.1870,0.018372,-0.338562,1.105652
2017-06-13 10:01:08.5820,0.087219,0.151672,0.771667
2017-06-13 10:01:08.8500,-0.149597,0.038391,0.913269
2017-06-13 10:01:09.2590,-0.211609,-0.040222,1.012390
2017-06-13 10:01:09.5250,0.003235,-0.082703,0.876648
2017-06-13 10:01:09.7960,-0.200378,0.151672,0.920593
2017-06-13 10:01:10.0650,-0.335632,0.275696,0.748718
2017-06-13 10:01:10.4720,-0.118835,0.115051,1.107117
2017-06-13 10:01:10.7410,-0.065613,0.092102,0.921570
2017-06-13 10:01:11.0100,-0.216492,0.129211,1.008972
2017-06-13 10:01:11.4170,-0.261414,0.282043,0.798523
2017-06-13 10:01:11.8210,-0.303406,0.386536,0.884949
2017-06-13 10:01:12.2270,-0.357605,0.607239,0.844421
2017-06-13 10:01:12.6310,-0.446960,0.617981,0.823914
2017-06-13 10:01:13.0370,-0.479187,0.366516,0.774109
2017-06-13 10:01:13.4410,-0.430359,0.232727,0.759949
2017-06-13 10:01:13.9840,-0.484070,0.039368,1.141785
2017-06-13 10:01:14.3870,-0.444519,0.026672,1.179871
2017-06-13 10:01:14.7900,-0.406433,0.503723,0.706726
2017-06-13 10:01:15.1970,-0.342468,0.348938,0.937195
2017-06-13 10:01:15.7400,-0.538269,-0.016296,0.998718
2017-06-13 10:01:16.0060,-0.469910,-0.029968,1.237488
2017-06-13 10:01:16.4120,-0.326843,0.288879,0.911804
2017-06-13 10:01:16.8150,-0.293640,0.490540,0.501648
2017-06-13 10:01:17.3570,-0.358582,0.280090,0.841492
2017-06-13 10:01:17.7600,-0.512390,0.028137,1.018250
2017-06-13 10:01:18.3050,-0.333191,0.248352,0.855652
2017-06-13 10:01:18.7080,-0.569519,0.481750,0.293640
2017-06-13 10:01:18.9750,-0.479675,0.260559,1.038757
2017-06-13 10:01:19.3820,-0.445984,0.067200,0.843445
2017-06-13 10:01:19.7860,-0.538757,0.117493,1.114929
2017-06-13 10:01:20.1920,-0.294128,0.410461,0.735046
2017-06-13 10:01:20.5980,0.005188,0.376770,0.551941
2017-06-13 10:01:21.0000,-0.324402,0.363586,0.966980
2017-06-13 10:01:21.2710,-0.436707,0.149719,1.039246
2017-06-13 10:01:21.5410,-0.432312,0.022766,1.091492
2017-06-13 10:01:21.9470,-0.451355,0.227356,0.903992
2017-06-13 10:01:22.4900,-0.436707,0.619934,0.678894
2017-06-13 10:01:22.7550,-0.567078,0.612122,0.768738
2017-06-13 10:01:23.1620,-0.413757,0.627747,0.703796
2017-06-13 10:01:23.5650,-0.411804,0.662415,0.842468
2017-06-13 10:01:23.9720,-0.363953,0.835266,0.437683
2017-06-13 10:01:24.3770,-0.401062,0.843567,-0.215149
2017-06-13 10:01:24.6450,-0.631531,0.802063,-0.114075
2017-06-13 10:01:24.9150,-0.509949,0.755676,0.020203
2017-06-13 10:01:25.1850,-0.359558,1.008606,-0.188782
2017-06-13 10:01:25.4550,-0.265320,0.961243,-0.276672
2017-06-13 10:01:25.7250,-0.124695,0.950989,-0.347473
