Date-Time,x,y,z
2017-06-14 13:39:35.2220,0.096375,0.017700,0.928345
2017-06-14 13:39:35.7660,0.100281,0.024048,0.915649
2017-06-14 13:39:36.0320,0.060730,0.020630,0.985962
2017-06-14 13:39:36.5770,0.048035,-0.097046,1.084106
2017-06-14 13:39:36.8450,-0.011536,-0.105347,1.147095
2017-06-14 13:39:37.2470,-0.077454,-0.113159,1.185669
2017-06-14 13:39:37.5170,-0.115051,-0.119507,1.212036
2017-06-14 13:39:37.7870,0.041199,-0.039429,1.005493
2017-06-14 13:39:38.0570,0.152039,0.012329,0.840942
2017-06-14 13:39:38.3270,0.327820,0.225708,0.194946
2017-06-14 13:39:38.7320,0.280945,0.263306,0.322388
2017-06-14 13:39:39.0020,0.106628,-0.086792,0.665161
2017-06-14 13:39:39.4090,0.119812,0.003052,0.842896
2017-06-14 13:39:39.8120,0.021179,0.068970,0.918091
2017-06-14 13:39:40.2180,0.093445,0.038696,0.921021
2017-06-14 13:39:40.7600,0.087585,0.054810,0.918091
2017-06-14 13:39:41.0310,0.075378,0.027466,0.942505
2017-06-14 13:39:41.7160,0.055359,0.007446,0.986938
2017-06-14 13:39:42.1080,0.056824,0.026001,0.946899
2017-06-14 13:39:42.3760,0.070007,0.019165,0.948364
2017-06-14 13:39:42.6480,0.069031,0.017700,0.945435
2017-06-14 13:39:43.0520,0.072449,0.019165,0.967407
2017-06-14 13:39:43.4580,0.088074,0.033813,0.939087
2017-06-14 13:39:43.7260,0.083191,0.017700,0.935181
2017-06-14 13:39:43.9960,0.072449,0.026001,0.944946
2017-06-14 13:39:44.4030,0.079285,0.014771,0.949341
2017-06-14 13:39:44.6710,0.067566,0.021606,0.948364
2017-06-14 13:39:44.9460,0.078308,0.028442,0.943970
2017-06-14 13:39:45.3460,0.075867,0.032349,0.941040
2017-06-14 13:39:45.6160,0.070984,0.037231,0.929321
2017-06-14 13:39:46.0210,0.112488,0.022095,0.946411
2017-06-14 13:39:46.2910,0.150085,0.006470,0.958618
2017-06-14 13:39:46.5630,0.171082,0.005981,0.946899
