Date-Time,x,y,z
2017-06-14 13:44:38.9700,-0.492493,-0.179565,0.154907
2017-06-14 13:44:39.3750,-0.439758,-0.059937,0.242798
2017-06-14 13:44:39.9190,-0.513489,-0.004272,0.459595
2017-06-14 13:44:40.1850,-0.074036,0.134399,0.592407
2017-06-14 13:44:40.4560,-0.054993,0.164185,0.619263
2017-06-14 13:44:40.7250,-0.165833,0.067505,0.508423
2017-06-14 13:44:40.9950,-0.214172,0.117798,0.485474
2017-06-14 13:44:41.2650,-0.361633,0.045532,0.408813
2017-06-14 13:44:41.6720,-0.507629,0.025024,0.543579
2017-06-14 13:44:41.9400,-0.794739,-0.038452,0.734985
2017-06-14 13:44:42.3460,-0.466125,-0.162476,0.545044
2017-06-14 13:44:42.6150,-0.398254,-0.320190,0.491821
2017-06-14 13:44:42.8850,-0.223450,-0.054077,0.187134
2017-06-14 13:44:43.1550,-0.223450,0.118286,0.271606
2017-06-14 13:44:43.5660,-0.055481,0.085083,0.316040
2017-06-14 13:44:43.9650,-0.198059,0.012329,0.048462
2017-06-14 13:44:44.5100,-0.170227,0.035767,0.079712
2017-06-14 13:44:45.1880,-0.244934,0.050903,0.077271
2017-06-14 13:44:45.5850,-0.074524,0.040161,0.106567
2017-06-14 13:44:45.9920,-0.114563,0.009399,0.122192
2017-06-14 13:44:46.3970,-0.151184,0.040649,0.127563
2017-06-14 13:44:46.6650,-0.165833,-0.015503,0.085083
2017-06-14 13:44:46.9350,-0.175598,0.000122,0.102661
2017-06-14 13:44:47.2050,-0.184875,0.020142,0.123169
2017-06-14 13:44:47.4750,-0.196594,0.002563,0.108521
2017-06-14 13:44:47.7470,-0.168762,0.011353,0.106079
