Date-Time,x,y,z
2017-06-14 12:15:23.6690,-0.064758,0.009888,0.248657
2017-06-14 12:15:24.0640,-0.113098,0.014771,0.215454
2017-06-14 12:15:24.4690,-0.104797,0.033325,0.191040
2017-06-14 12:15:24.8740,-0.121399,0.066528,0.199829
2017-06-14 12:15:25.2800,-0.134094,0.045044,0.195435
2017-06-14 12:15:25.6840,-0.115540,0.054810,0.180786
2017-06-14 12:15:26.0900,-0.120911,0.064575,0.196411
2017-06-14 12:15:26.4950,-0.090637,0.002563,0.063110
2017-06-14 12:15:26.9030,-0.277649,0.268677,0.383911
2017-06-14 12:15:27.1690,-0.105774,-0.202026,0.395142
2017-06-14 12:15:27.4390,-0.078430,-0.031128,0.146606
2017-06-14 12:15:27.8440,-0.120422,0.065063,0.200806
2017-06-14 12:15:28.2500,-0.197083,0.027466,0.200317
2017-06-14 12:15:28.6540,-0.175598,0.022095,0.162231
2017-06-14 12:15:29.0590,-0.218079,0.023071,0.180298
2017-06-14 12:15:29.5990,-0.203918,0.030396,0.189087
