Date-Time,x,y,z
2017-06-14 13:48:46.5630,-0.229492,-0.970337,0.195129
2017-06-14 13:48:46.9640,-0.235840,-0.987427,-0.015808
2017-06-14 13:48:47.2340,-0.219727,-0.955688,-0.063171
2017-06-14 13:48:47.5040,-0.373535,-1.208618,-0.372742
2017-06-14 13:48:47.7740,-0.319824,-1.136353,-0.236511
2017-06-14 13:48:48.1820,-0.229004,-0.749634,-0.094910
2017-06-14 13:48:48.5840,-0.114258,-0.907349,0.271301
2017-06-14 13:48:48.8540,-0.110840,-0.971802,0.267883
2017-06-14 13:48:49.1240,-0.128418,-0.963989,0.257629
2017-06-14 13:48:49.5300,-0.062988,-0.954224,0.287903
2017-06-14 13:48:49.8030,-0.061035,-0.963501,0.266418
2017-06-14 13:48:50.0700,-0.084961,-0.960083,0.255188
2017-06-14 13:48:50.3390,-0.066895,-0.951782,0.257141
2017-06-14 13:48:50.7440,-0.035645,-0.979126,0.267883
2017-06-14 13:48:51.1500,-0.070312,-0.959106,0.214172
2017-06-14 13:48:51.4190,-0.048340,-0.966919,0.207825
2017-06-14 13:48:51.8250,-0.087402,-0.980103,0.251282
2017-06-14 13:48:52.0930,-0.143555,-0.943970,0.253235
2017-06-14 13:48:52.3640,-0.153320,-0.962036,0.247864
2017-06-14 13:48:52.7690,-0.157227,-0.949341,0.265930
2017-06-14 13:48:53.4450,-0.121582,-0.950806,0.276184
