Date-Time,x,y,z
2017-06-14 12:34:08.4730,0.176453,-1.817261,0.251587
2017-06-14 12:34:09.0120,0.179382,-1.823120,0.272095
2017-06-14 12:34:09.2820,0.192078,-1.826050,0.256958
2017-06-14 12:34:09.6880,0.200378,-1.840210,0.270142
2017-06-14 12:34:10.0930,0.281921,-1.874390,0.378540
2017-06-14 12:34:10.4980,0.237000,-1.832886,0.298462
2017-06-14 12:34:10.7680,0.152039,-1.740112,0.108521
2017-06-14 12:34:11.0370,0.173523,-1.752319,0.046997
2017-06-14 12:34:11.4470,0.224792,-1.760132,0.174927
2017-06-14 12:34:11.7130,0.311707,-1.718140,0.349731
2017-06-14 12:34:12.1180,0.431824,-1.999939,0.701782
2017-06-14 12:34:12.3880,0.118347,-1.394897,0.476685
2017-06-14 12:34:12.6570,0.144226,-1.732300,0.122681
2017-06-14 12:34:13.0670,0.204285,-1.816284,0.205688
2017-06-14 12:34:13.4670,0.223328,-1.787964,0.153931
2017-06-14 12:34:14.0120,0.203796,-1.785522,0.172485
2017-06-14 12:34:14.2770,0.265320,-1.804077,0.146118
2017-06-14 12:34:14.5470,0.277039,-1.771851,0.149536
2017-06-14 12:34:14.8170,0.341980,-1.739624,0.109985
2017-06-14 12:34:15.0870,0.319031,-1.743042,0.145142
2017-06-14 12:34:15.3580,0.238953,-1.760132,0.119263
2017-06-14 12:34:15.7740,0.258972,-1.773315,0.131470
2017-06-14 12:34:16.0320,0.265808,-1.757202,0.129517
