Date-Time,x,y,z
2017-06-14 12:34:22.5120,0.195496,-1.813843,0.242310
2017-06-14 12:34:22.9170,0.188660,-1.836792,0.244751
2017-06-14 12:34:23.3220,0.197449,-1.824585,0.279907
2017-06-14 12:34:23.7280,0.192566,-1.831421,0.251587
2017-06-14 12:34:24.1330,0.182800,-1.852905,0.261841
2017-06-14 12:34:24.5380,0.229187,-1.687866,0.055786
2017-06-14 12:34:24.8070,0.096863,-1.690308,-0.082886
2017-06-14 12:34:25.0770,0.068054,-1.745972,0.181274
2017-06-14 12:34:25.4830,0.278992,-1.734253,0.466919
2017-06-14 12:34:25.8870,0.411316,-1.999939,0.861450
2017-06-14 12:34:26.4310,0.172058,-1.443237,0.414673
2017-06-14 12:34:26.6970,0.143738,-1.776733,0.085083
2017-06-14 12:34:27.1030,0.147644,-1.799194,0.183228
2017-06-14 12:34:27.5080,0.089050,-1.803101,0.136841
2017-06-14 12:34:27.9120,0.087097,-1.802124,0.135864
2017-06-14 12:34:28.3180,0.097839,-1.801636,0.132446
2017-06-14 12:34:28.7230,0.135925,-1.774292,0.148071
2017-06-14 12:34:29.1290,0.126648,-1.790894,0.163208
2017-06-14 12:34:29.3970,0.158875,-1.848511,0.202759
2017-06-14 12:34:29.6670,0.052429,-1.800171,0.286255
2017-06-14 12:34:30.0720,0.068054,-1.845581,0.254517
2017-06-14 12:34:30.4770,0.084167,-1.854370,0.269653
2017-06-14 12:34:30.8820,0.079773,-1.857300,0.298950
