Date-Time,x,y,z
2017-06-14 12:30:33.5540,-0.237610,-1.841675,0.663208
2017-06-14 12:30:33.9590,-0.249329,-1.842651,0.671997
2017-06-14 12:30:34.2290,-0.239075,-1.856812,0.651978
2017-06-14 12:30:34.5000,-0.247375,-1.855835,0.675415
2017-06-14 12:30:34.7690,-0.245911,-1.846069,0.649048
2017-06-14 12:30:35.1790,-0.257141,-1.839722,0.678833
2017-06-14 12:30:35.4440,-0.325500,-1.748901,0.496216
2017-06-14 12:30:35.7130,-0.495422,-1.637085,-0.329468
2017-06-14 12:30:36.1180,-0.121887,-1.711792,-0.047729
2017-06-14 12:30:36.5240,-0.312317,-1.751343,0.293579
2017-06-14 12:30:37.0680,-0.042786,-1.764526,0.867798
2017-06-14 12:30:37.3350,-0.171204,-1.839722,0.796509
2017-06-14 12:30:37.7380,-0.183411,-1.817261,0.825806
2017-06-14 12:30:38.1440,-0.204407,-1.811401,0.806763
2017-06-14 12:30:38.5480,-0.204895,-1.828003,0.819458
2017-06-14 12:30:38.9530,-0.221497,-1.826538,0.790649
2017-06-14 12:30:39.3580,-0.220032,-1.825562,0.814087
2017-06-14 12:30:39.7640,-0.211243,-1.805542,0.792603
2017-06-14 12:30:40.1690,-0.208313,-1.821167,0.791138
2017-06-14 12:30:40.4390,-0.213684,-1.817261,0.802368
2017-06-14 12:30:40.7090,-0.219543,-1.811401,0.822388
2017-06-14 12:30:41.1140,-0.222961,-1.827026,0.792114
2017-06-14 12:30:41.5180,-0.219543,-1.826538,0.790161
