Date-Time,x,y,z
2017-06-02 14:41:14.5890,0.064026,0.885254,0.453003
2017-06-02 14:41:14.9940,0.042053,0.892578,0.456421
2017-06-02 14:41:15.4000,0.051819,0.891602,0.454468
2017-06-02 14:41:15.6690,0.063049,0.880859,0.457397
2017-06-02 14:41:15.9380,0.049377,0.898926,0.459839
2017-06-02 14:41:16.3540,0.052795,0.889648,0.461304
2017-06-02 14:41:16.7500,0.052307,0.873535,0.468628
2017-06-02 14:41:17.2940,0.053284,0.875488,0.475464
2017-06-02 14:41:17.5580,0.061768,0.876953,0.473511
2017-06-02 14:41:17.8290,0.052429,0.876038,0.480835
2017-06-02 14:41:18.0990,0.053162,0.874695,0.480957
2017-06-02 14:41:18.6420,0.052246,0.876648,0.478027
2017-06-02 14:41:18.9090,0.051697,0.882568,0.457092
2017-06-02 14:41:19.1790,0.062683,0.898315,0.461548
2017-06-02 14:41:19.4480,0.085571,0.901550,0.410706
2017-06-02 14:41:19.7190,0.089966,0.912292,0.392151
2017-06-02 14:41:20.1240,0.084106,0.897156,0.356018
2017-06-02 14:41:20.3940,0.185181,1.016785,0.208557
2017-06-02 14:41:20.6690,0.181274,0.976746,0.139709
2017-06-02 14:41:20.9340,0.192993,0.978210,0.116760
2017-06-02 14:41:21.2050,0.194458,0.992859,0.096741
2017-06-02 14:41:21.4740,0.208618,0.965027,0.096252
2017-06-02 14:41:21.8810,0.200806,0.990906,0.069397
2017-06-02 14:41:22.2850,0.208618,1.001648,0.044006
2017-06-02 14:41:22.6890,0.187134,0.979675,0.115784
2017-06-02 14:41:22.9580,0.127563,0.977234,0.256897
2017-06-02 14:41:23.3660,0.129028,0.938171,0.285706
2017-06-02 14:41:23.7700,0.139771,0.947449,0.311096
2017-06-02 14:41:24.0390,0.129028,0.943542,0.296936
2017-06-02 14:41:24.4440,0.128540,0.940125,0.300842
2017-06-02 14:41:24.7160,0.129517,0.938171,0.303772
