Date-Time,x,y,z
2017-06-02 14:41:34.0290,0.057251,0.880066,0.489319
2017-06-02 14:41:34.4340,0.110962,0.895203,0.419983
2017-06-02 14:41:34.8380,0.100220,0.905945,0.432190
2017-06-02 14:41:35.2450,0.072876,0.889343,0.444885
2017-06-02 14:41:35.5140,0.087524,0.880066,0.442444
2017-06-02 14:41:35.7850,0.092407,0.893250,0.446838
2017-06-02 14:41:36.1900,0.114868,0.876160,0.445862
2017-06-02 14:41:36.5950,0.100220,0.888855,0.454163
2017-06-02 14:41:37.0000,0.121216,0.892273,0.438049
2017-06-02 14:41:37.2680,0.110962,0.891785,0.449768
2017-06-02 14:41:37.6760,0.108521,0.898132,0.447327
2017-06-02 14:41:37.9530,0.111938,0.888367,0.442444
2017-06-02 14:41:38.4870,0.113403,0.879578,0.451721
2017-06-02 14:41:38.7530,0.122192,0.898621,0.447815
2017-06-02 14:41:39.1580,0.110962,0.887878,0.441467
2017-06-02 14:41:39.5650,0.120239,0.887390,0.449280
2017-06-02 14:41:39.8340,0.109497,0.896667,0.450256
2017-06-02 14:41:40.1030,0.114868,0.891785,0.446838
2017-06-02 14:41:40.3760,0.115356,0.902039,0.444885
2017-06-02 14:41:40.6450,0.122681,0.894714,0.442444
2017-06-02 14:41:40.9140,0.116821,0.906921,0.441467
2017-06-02 14:41:41.3180,0.128540,0.885925,0.429260
2017-06-02 14:41:41.7240,0.128540,0.873230,0.426331
2017-06-02 14:41:42.1340,0.139282,0.880066,0.451233
2017-06-02 14:41:42.4020,0.120728,0.874695,0.442932
2017-06-02 14:41:42.6680,0.120239,0.874207,0.460999
2017-06-02 14:41:43.0750,0.128540,0.873718,0.476624
2017-06-02 14:41:43.4810,0.113892,0.882507,0.477600
2017-06-02 14:41:44.0230,0.127563,0.862976,0.462463
2017-06-02 14:41:44.2880,0.116333,0.872742,0.475647
2017-06-02 14:41:44.5580,0.129028,0.879089,0.460510
2017-06-02 14:41:44.8290,0.124146,0.865906,0.459045
2017-06-02 14:41:45.2390,0.122681,0.883484,0.477600
2017-06-02 14:41:45.6400,0.116333,0.868835,0.477112
2017-06-02 14:41:45.9080,0.125122,0.864929,0.484924
2017-06-02 14:41:46.3150,0.117310,0.870789,0.474182
2017-06-02 14:41:46.5830,0.130005,0.873230,0.476624
2017-06-02 14:41:46.8540,0.126587,0.882507,0.492249
2017-06-02 14:41:47.1240,0.133911,0.883972,0.478088
2017-06-02 14:41:47.3940,0.125122,0.867859,0.464905
