Date-Time,x,y,z
2017-06-02 14:39:12.6840,0.169983,0.891113,0.403687
2017-06-02 14:39:13.0890,0.164124,0.883301,0.439819
2017-06-02 14:39:13.3610,0.166565,0.890137,0.442261
2017-06-02 14:39:13.6290,0.161682,0.887207,0.446167
2017-06-02 14:39:14.0340,0.174866,0.887207,0.438354
2017-06-02 14:39:14.4400,0.226135,0.912109,0.411011
2017-06-02 14:39:14.9840,0.195374,0.871094,0.447632
2017-06-02 14:39:15.3860,0.205627,0.885742,0.408569
2017-06-02 14:39:15.6540,0.193909,0.913086,0.382690
2017-06-02 14:39:15.9240,0.249084,0.952148,0.304565
2017-06-02 14:39:16.3290,0.267151,0.916992,0.247437
2017-06-02 14:39:16.5990,0.258850,0.946289,0.287476
2017-06-02 14:39:17.0060,0.213928,0.902344,0.308472
2017-06-02 14:39:17.2740,0.236877,0.932129,0.307983
2017-06-02 14:39:17.5440,0.234436,0.930664,0.299683
2017-06-02 14:39:17.8150,0.233948,0.947266,0.289429
2017-06-02 14:39:18.2210,0.238831,0.927734,0.292358
2017-06-02 14:39:18.4890,0.240784,0.929199,0.296265
2017-06-02 14:39:18.7590,0.240784,0.906250,0.294312
2017-06-02 14:39:19.1660,0.262268,0.940918,0.273804
2017-06-02 14:39:19.5710,0.254456,0.922852,0.271851
2017-06-02 14:39:19.9760,0.262756,0.929688,0.284546
2017-06-02 14:39:20.3800,0.251526,0.917480,0.272827
2017-06-02 14:39:20.9210,0.250549,0.929199,0.296753
2017-06-02 14:39:21.4650,0.261292,0.929688,0.274780
2017-06-02 14:39:21.7350,0.273010,0.917480,0.265503
2017-06-02 14:39:22.1340,0.278381,0.922852,0.277222
2017-06-02 14:39:22.4040,0.271057,0.923340,0.275269
